{
  "repo": {
    "timestamp": 1558527516455,
    "version": 18,
    "name": "Repo personnel",
    "icon": "default-repo-icon.png",
    "address": "https://gitlab.com/bebenbouv/repo2/raw/master/fdroid/repo",
    "description": "Contient les APK dont j'ai besoin et qui ne sont pas open-sources",
    "mirrors": [
      "https://gitlab.com/bebenbouv/repo2/raw/master/fdroid/repo/repo"
    ]
  },
  "requests": {
    "install": [],
    "uninstall": []
  },
  "apps": [
    {
      "suggestedVersionCode": "298",
      "license": "Unknown",
      "name": "DS cloud",
      "added": 1558527409219,
      "icon": "com.synology.dscloud.298.png",
      "packageName": "com.synology.dscloud",
      "lastUpdated": 1558527513630
    },
    {
      "suggestedVersionCode": "294",
      "license": "Unknown",
      "name": "DS video",
      "added": 1558527417787,
      "icon": "com.synology.dsvideo.294.png",
      "packageName": "com.synology.dsvideo",
      "lastUpdated": 1558527516441
    }
  ],
  "packages": {
    "com.synology.dscloud": [
      {
        "added": 1558527513630,
        "apkName": "Android-DScloud.2.8.0-298.apk",
        "hash": "8e2a84485349b6831a92c89e3563d90c5bfe443424b9c9413f0ded8c8a17d591",
        "hashType": "sha256",
        "minSdkVersion": "14",
        "nativecode": [
          "armeabi-v7a",
          "x86"
        ],
        "packageName": "com.synology.dscloud",
        "sig": "6334812434628d53d349a75cc24552ee",
        "size": 40273841,
        "targetSdkVersion": "22",
        "uses-permission": [
          [
            "com.android.launcher.permission.INSTALL_SHORTCUT",
            null
          ],
          [
            "android.permission.INTERNET",
            null
          ],
          [
            "android.permission.ACCESS_WIFI_STATE",
            null
          ],
          [
            "android.permission.ACCESS_NETWORK_STATE",
            null
          ],
          [
            "android.permission.WRITE_SETTINGS",
            null
          ],
          [
            "android.permission.SYSTEM_ALERT_WINDOW",
            null
          ],
          [
            "android.permission.WAKE_LOCK",
            null
          ],
          [
            "android.permission.CHANGE_WIFI_MULTICAST_STATE",
            null
          ],
          [
            "android.permission.WRITE_EXTERNAL_STORAGE",
            null
          ],
          [
            "android.permission.RECEIVE_BOOT_COMPLETED",
            null
          ],
          [
            "com.android.email.permission.READ_ATTACHMENT",
            null
          ],
          [
            "android.permission.CHANGE_CONFIGURATION",
            null
          ],
          [
            "android.permission.VIBRATE",
            null
          ],
          [
            "android.permission.USE_FINGERPRINT",
            null
          ],
          [
            "android.permission.READ_EXTERNAL_STORAGE",
            null
          ]
        ],
        "versionCode": 298,
        "versionName": "2.8.0"
      }
    ],
    "com.synology.dsvideo": [
      {
        "added": 1558527516441,
        "apkName": "Android-DSvideo.3.4.3-294.apk",
        "hash": "a85d80acdf3edea0917a334ed0a790335e29b6a56eeaccbcbad4f8d6f1140c23",
        "hashType": "sha256",
        "minSdkVersion": "19",
        "nativecode": [
          "arm64-v8a",
          "armeabi",
          "armeabi-v7a",
          "x86",
          "x86_64"
        ],
        "packageName": "com.synology.dsvideo",
        "sig": "6334812434628d53d349a75cc24552ee",
        "size": 27122122,
        "targetSdkVersion": "26",
        "uses-permission": [
          [
            "android.permission.INTERNET",
            null
          ],
          [
            "android.permission.ACCESS_WIFI_STATE",
            null
          ],
          [
            "android.permission.ACCESS_NETWORK_STATE",
            null
          ],
          [
            "android.permission.WRITE_EXTERNAL_STORAGE",
            null
          ],
          [
            "android.permission.CHANGE_WIFI_MULTICAST_STATE",
            null
          ],
          [
            "android.permission.WAKE_LOCK",
            null
          ],
          [
            "com.synology.PERMISSION_HISTORY_DATA",
            null
          ],
          [
            "android.permission.READ_EXTERNAL_STORAGE",
            null
          ]
        ],
        "versionCode": 294,
        "versionName": "3.4.3"
      }
    ]
  }
}